<svg width="72" height="72" viewBox="0 0 19.05 19.05" version="1.1" id="svg19813" xmlns="http://www.w3.org/2000/svg">
    <g id="layer1">
        <path style="fill:#000;stroke:none;stroke-width:440.514;stop-color:#000" id="background" d="M0 0h19.05v19.05H0z"/>
        <g id="path1228">
            <path style="-inkscape-stroke:none;color:#000;fill:#848484;fill-opacity:1;font-variation-settings:normal;opacity:1;stop-color:#000;stop-opacity:1;stroke:none;stroke-dasharray:none;stroke-dashoffset:0;stroke-linecap:butt;stroke-linejoin:miter;stroke-miterlimit:4;stroke-opacity:1;stroke-width:.489818;vector-effect:none" d="m8.318 6.069-.715.646 2.543 2.81-2.543 2.81.715.648 3.129-3.457Z" id="path15722"/>
        </g>
    </g>
</svg>
