<svg width="72" height="72" viewBox="0 0 19.05 19.05" version="1.1" id="svg19813" xmlns="http://www.w3.org/2000/svg">
    <g id="Symbol">
        <path style="fill:#000;stroke:none;stroke-width:440.514;stop-color:#000" id="background" d="M0 0h19.05v19.05H0z"/>
        <text xml:space="preserve" style="font-style:normal;font-variant:normal;font-weight:400;font-stretch:normal;font-size:10.5833px;line-height:1.25;font-family:'Zombie Holocaust';-inkscape-font-specification:'Zombie Holocaust';letter-spacing:0;word-spacing:0;fill:#000;fill-opacity:1;stroke:none;stroke-width:.264583" x="25.152" y="5.182" id="text45767"/>
        <g id="g1177" transform="matrix(8.24186 0 0 8.24186 -931.704 -713.23)" style="font-variation-settings:normal;fill:#848484;fill-opacity:.223529;stroke:#848484;stroke-width:.0360094;stroke-linecap:butt;stroke-linejoin:miter;stroke-miterlimit:4;stroke-dasharray:none;stroke-dashoffset:0;stroke-opacity:1;stop-color:#000">
            <path style="font-variation-settings:normal;fill:#848484;fill-opacity:.223529;stroke:#848484;stroke-width:.0360094;stroke-linecap:butt;stroke-linejoin:miter;stroke-miterlimit:4;stroke-dasharray:none;stroke-dashoffset:0;stroke-opacity:1;stop-color:#000;stop-opacity:1" d="M113.375 87.394h.29l.329-.35v1.297l-.328-.349h-.291z" id="path935"/>
        </g>
    </g>
    <g id="Inc" style="display:none">
        <g id="g88027" transform="translate(-68.733 -71.764) scale(.90271)">
            <circle style="fill:#848484;fill-opacity:.223529;stroke:#848484;stroke-width:.749964;stroke-miterlimit:4;stroke-dasharray:none;stroke-opacity:1;stop-color:#000" id="path54861" cx="91.721" cy="90.05" r="3.728"/>
            <g id="g87858" transform="translate(-11.335 1.2) scale(.9863)" style="stroke-width:.760416;stroke-miterlimit:4;stroke-dasharray:none">
                <path style="font-variation-settings:normal;opacity:1;fill:none;fill-opacity:1;stroke:#848484;stroke-width:.760416;stroke-linecap:butt;stroke-linejoin:miter;stroke-miterlimit:4;stroke-dasharray:none;stroke-dashoffset:0;stroke-opacity:1;stop-color:#000;stop-opacity:1" d="M104.487 87.669v4.828" id="path87655"/>
                <path style="font-variation-settings:normal;opacity:1;fill:none;fill-opacity:1;stroke:#848484;stroke-width:.760416;stroke-linecap:butt;stroke-linejoin:miter;stroke-miterlimit:4;stroke-dasharray:none;stroke-dashoffset:0;stroke-opacity:1;stop-color:#000;stop-opacity:1" d="M106.902 90.083h-4.829" id="path87774"/>
            </g>
        </g>
    </g>
    <g id="Dec" style="display:none">
        <g id="g50281" transform="translate(-68.733 -71.764) scale(.90271)">
            <circle style="fill:#848484;fill-opacity:.223529;stroke:#848484;stroke-width:.749964;stroke-miterlimit:4;stroke-dasharray:none;stroke-opacity:1;stop-color:#000" id="ellipse50273" cx="91.721" cy="90.05" r="3.728"/>
            <g id="g50279" transform="translate(-11.335 1.2) scale(.9863)" style="stroke-width:.760416;stroke-miterlimit:4;stroke-dasharray:none">
                <path style="font-variation-settings:normal;opacity:1;fill:none;fill-opacity:1;stroke:#848484;stroke-width:.760416;stroke-linecap:butt;stroke-linejoin:miter;stroke-miterlimit:4;stroke-dasharray:none;stroke-dashoffset:0;stroke-opacity:1;stop-color:#000;stop-opacity:1" d="M106.902 90.083h-4.829" id="path50277"/>
            </g>
        </g>
    </g>
    <g id="dB" style="display:inline">
        <text xml:space="preserve" style="font-style:normal;font-variant:normal;font-weight:400;font-stretch:normal;font-size:4.93889px;line-height:1.25;font-family:'Zombie Holocaust';-inkscape-font-specification:'Zombie Holocaust';text-align:end;letter-spacing:-.454728px;word-spacing:0;text-anchor:end;fill:#848484;fill-opacity:1;stroke:none;stroke-width:.180282" x="18.305" y="10.715" id="text46773"><tspan id="tspan46771" style="font-style:normal;font-variant:normal;font-weight:400;font-stretch:normal;font-size:4.93889px;font-family:Verdana;-inkscape-font-specification:Verdana;text-align:end;text-anchor:end;fill:#848484;fill-opacity:1;stroke-width:.180282" x="17.85" y="10.715">$(x)</tspan></text>
        <text xml:space="preserve" style="font-style:normal;font-variant:normal;font-weight:400;font-stretch:normal;font-size:4.23333px;line-height:1.25;font-family:'Zombie Holocaust';-inkscape-font-specification:'Zombie Holocaust';text-align:center;letter-spacing:-.454728px;word-spacing:0;text-anchor:middle;fill:#848484;fill-opacity:1;stroke:none;stroke-width:.180282" x="15.626" y="14.558" id="text36119"><tspan id="tspan36117" style="font-style:normal;font-variant:normal;font-weight:400;font-stretch:normal;font-size:4.23333px;font-family:Verdana;-inkscape-font-specification:Verdana;text-align:center;text-anchor:middle;fill:#848484;fill-opacity:1;stroke-width:.180282" x="15.398" y="14.558">dB</tspan></text>
    </g>
</svg>
