<svg width="72" height="72" viewBox="0 0 19.05 19.05" version="1.1" id="svg19813" xmlns="http://www.w3.org/2000/svg">
    <g id="Symbol">
        <path style="fill:#000;stroke:none;stroke-width:440.514;stop-color:#000" id="background" d="M0 0h19.05v19.05H0z"/>
        <text xml:space="preserve" style="font-style:normal;font-variant:normal;font-weight:400;font-stretch:normal;font-size:10.5833px;line-height:1.25;font-family:'Zombie Holocaust';-inkscape-font-specification:'Zombie Holocaust';letter-spacing:0;word-spacing:0;fill:#000;fill-opacity:1;stroke:none;stroke-width:.264583" x="25.152" y="5.182" id="text45767"/>
        <path id="path5100" style="font-variation-settings:normal;fill:#848484;fill-opacity:.223529;stroke:#848484;stroke-width:.338208;stroke-linecap:butt;stroke-linejoin:round;stroke-miterlimit:4;stroke-dasharray:none;stroke-dashoffset:0;stroke-opacity:1;stop-color:#000" d="m5.244 11.439 2.844-4.517.38.227.604-.647-.523-.313.645-1.025-.153-.093-.646 1.026-.506-.303-.308.824.353.212-2.902 4.609Zm-.906-7.462L1.4 14.49l.588.583H8.45l.587-.583L6.1 3.977Zm3.037 7.592H3.003L4.46 5.684h1.457Z"/>
    </g>
    <g id="Inc" style="display:none">
        <g id="g88027" transform="translate(-68.733 -71.764) scale(.90271)">
            <circle style="fill:#848484;fill-opacity:.223529;stroke:#848484;stroke-width:.749964;stroke-miterlimit:4;stroke-dasharray:none;stroke-opacity:1;stop-color:#000" id="path54861" cx="91.721" cy="90.05" r="3.728"/>
            <g id="g87858" transform="translate(-11.335 1.2) scale(.9863)" style="stroke-width:.760416;stroke-miterlimit:4;stroke-dasharray:none">
                <path style="font-variation-settings:normal;opacity:1;fill:none;fill-opacity:1;stroke:#848484;stroke-width:.760416;stroke-linecap:butt;stroke-linejoin:miter;stroke-miterlimit:4;stroke-dasharray:none;stroke-dashoffset:0;stroke-opacity:1;stop-color:#000;stop-opacity:1" d="M104.487 87.669v4.828" id="path87655"/>
                <path style="font-variation-settings:normal;opacity:1;fill:none;fill-opacity:1;stroke:#848484;stroke-width:.760416;stroke-linecap:butt;stroke-linejoin:miter;stroke-miterlimit:4;stroke-dasharray:none;stroke-dashoffset:0;stroke-opacity:1;stop-color:#000;stop-opacity:1" d="M106.902 90.083h-4.829" id="path87774"/>
            </g>
        </g>
    </g>
    <g id="Dec" style="display:none">
        <g id="g50281" transform="translate(-68.733 -71.764) scale(.90271)">
            <circle style="fill:#848484;fill-opacity:.223529;stroke:#848484;stroke-width:.749964;stroke-miterlimit:4;stroke-dasharray:none;stroke-opacity:1;stop-color:#000" id="ellipse50273" cx="91.721" cy="90.05" r="3.728"/>
            <g id="g50279" transform="translate(-11.335 1.2) scale(.9863)" style="stroke-width:.760416;stroke-miterlimit:4;stroke-dasharray:none">
                <path style="font-variation-settings:normal;opacity:1;fill:none;fill-opacity:1;stroke:#848484;stroke-width:.760416;stroke-linecap:butt;stroke-linejoin:miter;stroke-miterlimit:4;stroke-dasharray:none;stroke-dashoffset:0;stroke-opacity:1;stop-color:#000;stop-opacity:1" d="M106.902 90.083h-4.829" id="path50277"/>
            </g>
        </g>
    </g>
    <g id="dB" style="display:inline">
        <text xml:space="preserve" style="font-style:normal;font-variant:normal;font-weight:400;font-stretch:normal;font-size:4.93889px;line-height:1.25;font-family:'Zombie Holocaust';-inkscape-font-specification:'Zombie Holocaust';text-align:end;letter-spacing:-.454728px;word-spacing:0;text-anchor:end;fill:#848484;fill-opacity:1;stroke:none;stroke-width:.180282" x="18.305" y="10.715" id="text46773"><tspan id="tspan46771" style="font-style:normal;font-variant:normal;font-weight:400;font-stretch:normal;font-size:4.93889px;font-family:Verdana;-inkscape-font-specification:Verdana;text-align:end;text-anchor:end;fill:#848484;fill-opacity:1;stroke-width:.180282" x="17.85" y="10.715">$(x)</tspan></text>
        <text xml:space="preserve" style="font-style:normal;font-variant:normal;font-weight:400;font-stretch:normal;font-size:4.23333px;line-height:1.25;font-family:'Zombie Holocaust';-inkscape-font-specification:'Zombie Holocaust';text-align:center;letter-spacing:-.454728px;word-spacing:0;text-anchor:middle;fill:#848484;fill-opacity:1;stroke:none;stroke-width:.180282" x="15.626" y="14.558" id="text36119"><tspan id="tspan36117" style="font-style:normal;font-variant:normal;font-weight:400;font-stretch:normal;font-size:4.23333px;font-family:Verdana;-inkscape-font-specification:Verdana;text-align:center;text-anchor:middle;fill:#848484;fill-opacity:1;stroke-width:.180282" x="15.398" y="14.558">dB</tspan></text>
    </g>
</svg>
