<svg width="72" height="72" viewBox="0 0 19.05 19.05" version="1.1" id="svg19813" xmlns="http://www.w3.org/2000/svg">
    <g id="layer1">
        <path style="fill:#000;stroke:none;stroke-width:440.514;stop-color:#000" id="background" d="M0 0h19.05v19.05H0z"/>
        <path id="rect908-9" style="font-variation-settings:normal;vector-effect:none;fill:#848484;fill-opacity:.223529;stroke:#848484;stroke-width:.94788;stroke-linecap:butt;stroke-linejoin:miter;stroke-miterlimit:4;stroke-dasharray:none;stroke-dashoffset:0;stroke-opacity:1;-inkscape-stroke:none;stop-color:#000" d="M16.564 14.711V4.34L6.192 9.525Z"/>
        <rect style="font-variation-settings:normal;vector-effect:none;fill:#848484;fill-opacity:.223529;stroke:#848484;stroke-width:.94788;stroke-linecap:butt;stroke-linejoin:miter;stroke-miterlimit:4;stroke-dasharray:none;stroke-dashoffset:0;stroke-opacity:1;-inkscape-stroke:none;stop-color:#000" id="rect851" width="2.117" height="10.958" x="-4.603" y="4.046" ry="0" transform="scale(-1 1)"/>
    </g>
</svg>
