<svg width="72" height="72" viewBox="0 0 19.05 19.05" version="1.1" id="svg19813" xmlns="http://www.w3.org/2000/svg">
    <g id="layer1">
        <path style="fill:#000;stroke:none;stroke-width:440.514;stop-color:#000" id="background" d="M0 0h19.05v19.05H0z"/>
        <g id="g20947" transform="translate(-1222.715 -4586.222) scale(7.23669)" style="stroke:#848484;stroke-opacity:1">
            <path id="rect20068" style="opacity:1;fill:#848484;fill-opacity:.221709;stroke:#848484;stroke-width:.101957;stroke-opacity:1;stop-color:#000" d="M169.219 634.29h.676l.374.384v1.16h-1.05z"/>
            <path style="font-variation-settings:normal;opacity:1;vector-effect:none;fill:none;fill-opacity:1;stroke:#848484;stroke-width:.101957;stroke-linecap:butt;stroke-linejoin:miter;stroke-miterlimit:4;stroke-dasharray:none;stroke-dashoffset:0;stroke-opacity:1;-inkscape-stroke:none;stop-color:#000;stop-opacity:1" d="M169.895 634.29v.384h.374" id="path3567"/>
        </g>
        <g id="g27031" transform="matrix(1 0 0 -1 -79.286 99.575)">
            <path id="rect908-9" style="fill:#848484;fill-opacity:1;stroke-width:.772757;stop-color:#000" d="M96.856 94.123h-6.433l3.216-6.433z"/>
            <path style="opacity:1;fill:#848484;fill-opacity:1;stroke:none;stroke-width:.290064;-inkscape-stroke:none;stop-color:#000" id="rect24286" d="M90.423 85.977h6.433v1.356h-6.433z"/>
        </g>
    </g>
</svg>
