<?xml version="1.0" encoding="UTF-8" standalone="no"?>
<svg
   width="72"
   height="72"
   viewBox="0 0 19.05 19.05"
   version="1.1"
   id="svg19813"
   sodipodi:docname="transport_nextMarker.svg"
   inkscape:version="1.1.1 (3bf5ae0d25, 2021-09-20)"
   xmlns:inkscape="http://www.inkscape.org/namespaces/inkscape"
   xmlns:sodipodi="http://sodipodi.sourceforge.net/DTD/sodipodi-0.dtd"
   xmlns="http://www.w3.org/2000/svg"
   xmlns:svg="http://www.w3.org/2000/svg">
  <defs
     id="defs8" />
  <sodipodi:namedview
     id="namedview6"
     pagecolor="#ffffff"
     bordercolor="#666666"
     borderopacity="1.0"
     inkscape:pageshadow="2"
     inkscape:pageopacity="0.0"
     inkscape:pagecheckerboard="0"
     showgrid="false"
     inkscape:zoom="7.0612469"
     inkscape:cx="40.361144"
     inkscape:cy="43.051886"
     inkscape:window-width="1920"
     inkscape:window-height="1018"
     inkscape:window-x="-6"
     inkscape:window-y="-6"
     inkscape:window-maximized="1"
     inkscape:current-layer="layer1" />
  <g
     id="layer1">
    <path
       style="fill:#000;stroke:none;stroke-width:440.514;stop-color:#000"
       id="background"
       d="M0 0h19.05v19.05H0z" />
    <path
       id="path831"
       style="font-variation-settings:normal;opacity:1;fill:#848484;fill-opacity:0.223529;stroke:#848484;stroke-width:0.529167;stroke-linecap:butt;stroke-linejoin:miter;stroke-miterlimit:4;stroke-dasharray:none;stroke-dashoffset:0;stroke-opacity:1;stop-color:#000000;stop-opacity:1"
       d="M 7.9594977,9.5250005 2.7411559,6.4020265 v 6.2459475 z m 5.7475083,0 -5.2183416,-3.122974 v 6.2459475 z m 2.601838,-6.245948 H 14.221507 V 15.770948 h 2.087337 z"
       sodipodi:nodetypes="ccccccccccccc" />
  </g>
</svg>
