<svg width="72" height="72" viewBox="0 0 19.05 19.05" version="1.1" id="svg19813" xmlns="http://www.w3.org/2000/svg">
    <g id="layer1">
        <path style="fill:#000;stroke:none;stroke-width:440.514;stop-color:#000" id="background" d="M0 0h19.05v19.05H0z"/>
        <path style="fill:#000;fill-opacity:0;stroke:#848484;stroke-width:.264584px;stroke-linecap:butt;stroke-linejoin:miter;stroke-opacity:1" d="M1.458 9.525h16.134" id="path862"/>
        <path id="path4024" style="fill:#848484;fill-opacity:.577689;stroke:none;stroke-width:.0999999;stroke-miterlimit:4;stroke-dasharray:none;stroke-opacity:1;stop-color:#000" d="M6.17 7.052c-1.87 0-3.305.777-3.301 2.426.003 1.32 1.58 2.52 3.451 2.52s3.37-.933 3.344-2.48C9.639 8.065 8.04 7.051 6.17 7.051zm-.185.339c.74.01 1.348.766 1.61 1.783.293 1.143.072 2.217-.818 2.416-.75.168-1.564-.375-1.88-1.722-.27-1.149-.062-2.244.809-2.446.095-.022.188-.032.279-.031z"/>
        <path id="path5258" style="fill:#848484;fill-opacity:1;stroke:none;stroke-width:.363999;stop-color:#000" d="M12.74 9.83c-1.87 0-3.306.776-3.302 2.425.003 1.32 1.58 2.52 3.451 2.52s3.37-.933 3.344-2.48c-.025-1.452-1.623-2.466-3.493-2.466zm-.186.338c.74.01 1.347.766 1.61 1.783.293 1.143.071 2.217-.818 2.416-.75.168-1.564-.375-1.88-1.722-.27-1.149-.062-2.244.809-2.446.095-.022.188-.032.279-.03z"/>
    </g>
</svg>
