<svg width="72" height="72" viewBox="0 0 19.05 19.05" version="1.1" id="svg19813" xmlns="http://www.w3.org/2000/svg">
    <g id="layer1">
        <path style="fill:#000;stroke:none;stroke-width:440.514;stop-color:#000" id="background" d="M0 0h19.05v19.05H0z"/>
        <path style="fill:#000;fill-opacity:0;stroke:#848484;stroke-width:.264584px;stroke-linecap:butt;stroke-linejoin:miter;stroke-opacity:1" d="M1.458 9.525h16.134" id="path862"/>
        <path id="path4024" style="fill:#848484;fill-opacity:.577689;stroke:none;stroke-width:.0999999;stroke-miterlimit:4;stroke-dasharray:none;stroke-opacity:1;stop-color:#000" d="M6.17 7.052c-1.87 0-3.305.777-3.301 2.426.003 1.32 1.58 2.52 3.451 2.52s3.37-.933 3.344-2.48C9.639 8.065 8.04 7.051 6.17 7.051zm-.185.339c.74.01 1.348.766 1.61 1.783.293 1.143.072 2.217-.818 2.416-.75.168-1.564-.375-1.88-1.722-.27-1.149-.062-2.244.809-2.446.095-.022.188-.032.279-.031z"/>
        <path id="path5258" style="fill:#848484;fill-opacity:1;stroke:none;stroke-width:.363999;stop-color:#000" d="M12.74 4.273c-1.87 0-3.306.776-3.302 2.426.003 1.319 1.58 2.52 3.451 2.52s3.37-.933 3.344-2.48c-.025-1.452-1.623-2.466-3.493-2.466zm-.186.339c.74.01 1.347.765 1.61 1.783.293 1.143.071 2.217-.818 2.416-.75.168-1.564-.375-1.88-1.722-.27-1.149-.062-2.244.809-2.446.095-.022.188-.032.279-.031z"/>
        <path id="path6987" style="font-size:6.87914px;line-height:1.25;font-family:'Zombie Holocaust';-inkscape-font-specification:'Zombie Holocaust';letter-spacing:0;word-spacing:0;baseline-shift:super;fill:#848484;fill-opacity:1;stroke-width:.264584" d="m9.087 1.246-.395 1.53s-.005.094-.005.132c0 .044.017.066.053.066.058 0 .152-.072.299-.268l.07.053c-.211.305-.365.457-.55.457-.123 0-.184-.058-.184-.176 0-.047.01-.121.03-.224.024-.105-.001-.173.014-.202l.035-.01c-.304.408-.634.66-.892.66a.37.37 0 0 1-.308-.171.641.641 0 0 1-.11-.348c0-.349.147-.728.422-1.06.27-.319.542-.457.8-.457.191 0 .286.048.357.207.007-.1.046-.098.061-.185zm-.44.427c0-.232-.11-.264-.25-.277-.184-.019-.39.085-.58.395-.191.308-.352.601-.352.862.009.169.06.32.299.286.207-.03.244-.1.483-.356.223-.282.4-.585.4-.91zm-3.295-.128s.571-.51.81-.264c.087.222.057.456.032.682-.04.356-.332.691-.283 1.037.01.064.093.101.162.07.483-.214.884-1.076.884-1.28 0-.036-.065-.142-.135-.193-.067-.055-.1-.113-.1-.173a.16.16 0 0 1 .059-.128.2.2 0 0 1 .3.032.304.304 0 0 1 .069.192c.03.87-.82 1.786-1.186 1.784-.366-.001-.366-.115-.43-.29-.064-.176.23-.73.307-1.117.03-.149.086-.455.006-.455-.085 0-.33.232-.385.247zM4.34 3.407c.25.321.436.55.436.955 0 .321-.096.681-.4.956-.361.33-.887.446-1.465.446-.45 0-.75-.127-1.054-.37-.28-.223-.408-.476-.408-.76 0-.629.245-1.238 1.29-1.592-.35-.378-.408-.612-.408-.901 0-.326.17-.683.474-.897.286-.205.698-.27 1.113-.27.35 0 .662.081.936.244.298.177.447.403.447.678 0 .572-.142 1.188-.961 1.511zm-.247-.376c.286-.065.475-.238.607-.417.13-.178.227-.477.165-.706-.133-.527-.572-.791-.982-.78-.359.011-.744.234-.741.677.003.443.6.887.95 1.226zm-1.072.331c-.33.101-.536.223-.775.498-.24.27-.292.56-.268.86.02.234.12.48.319.63.198.149.39.26.71.26a.891.891 0 0 0 .689-.297c.154-.164.256-.413.226-.637-.068-.526-.3-.774-.901-1.314z"/>
    </g>
</svg>
